{
  "defaultSeverity": "error",
  "extends": [
    "tslint:recommended"
  ],
  "jsRules": {},
  "rules": {
    "max-classes-per-file": [true, 1],
    "no-console": true,
    "semicolon": true,
    "trailing-comma": true,
    "forin": false
  },
  "rulesDirectory": []
}
